<svg width="466" height="466" viewBox="0 0 466 466" fill="none" xmlns="http://www.w3.org/2000/svg">
<path d="M233 0C104.337 0 0 104.337 0 233C0 361.663 104.337 466 233 466C361.663 466 466 361.663 466 233C466 104.337 361.663 0 233 0ZM237.938 368.66C237.935 368.66 237.942 368.66 237.938 368.66H237.881C214.541 368.649 191.606 362.797 171.237 351.69L97.3121 371.077L117.097 298.833C104.892 277.694 98.4711 253.71 98.4818 229.139C98.5137 152.273 161.073 89.7393 237.938 89.7393C275.24 89.7535 310.257 104.273 336.584 130.622C362.914 156.974 377.406 192 377.391 229.249C377.359 306.118 314.793 368.66 237.938 368.66V368.66Z" fill="white"/>
<path d="M237.991 113.286C174.056 113.286 122.06 165.261 122.031 229.149C122.024 251.043 128.153 272.364 139.754 290.813L142.51 295.196L130.799 337.956L174.667 326.451L178.902 328.961C196.696 339.52 217.096 345.105 237.895 345.113H237.941C301.826 345.113 353.822 293.134 353.851 229.242C353.862 198.279 341.816 169.168 319.933 147.267C298.05 125.367 268.947 113.297 237.991 113.286V113.286ZM306.167 278.966C303.263 287.101 289.344 294.528 282.649 295.53C276.644 296.426 269.05 296.8 260.702 294.151C255.639 292.544 249.151 290.4 240.835 286.813C205.883 271.724 183.054 236.541 181.312 234.216C179.57 231.891 167.084 215.326 167.084 198.179C167.084 181.036 176.086 172.606 179.279 169.122C182.475 165.634 186.251 164.763 188.572 164.763C190.894 164.763 193.219 164.784 195.249 164.884C197.389 164.991 200.262 164.07 203.088 170.864C205.993 177.839 212.961 194.983 213.833 196.725C214.704 198.471 215.283 200.504 214.124 202.83C212.961 205.155 209.1 210.171 205.414 214.743C203.867 216.66 201.851 218.366 203.885 221.854C205.915 225.338 212.912 236.747 223.268 245.984C236.579 257.851 247.807 261.528 251.291 263.273C254.772 265.015 256.805 264.724 258.839 262.402C260.869 260.077 267.55 252.23 269.871 248.743C272.193 245.255 274.518 245.838 277.711 247.001C280.907 248.16 298.036 256.589 301.52 258.331C305.005 260.077 307.326 260.948 308.197 262.402C309.072 263.856 309.072 270.828 306.167 278.966V278.966Z" fill="white"/>
</svg>
